data/DS0007.CSV

Memory Length,4000,
Trigger Level,-8.00000e+00,
Source,CH1,
Probe,10.0X,
Vertical Units,V,
Vertical Scale,2.00000e-01,
Vertical Position,0.00000e+00,
Horizontal Units,S,
Horizontal Scale,5.00000e-02,
Horizontal Position,0.0000000e+00,
Horizontal Mode,Roll Mode,
Waveform Last Dot Address,4000,
Sampling Period,2.00000e-04,
Firmware,V1.14.001,
Time, ,
Mode,Detail,
Waveform Data,
-4.000000e-1,-2.48e-1,
-3.998000e-1,-2.24e-1,
-3.996000e-1,-3.92e-1,
-3.994000e-1,-4.08e-1,
-3.992000e-1,3.92e-1,
-3.990000e-1,-4.00e-1,
-3.988000e-1,4.00e-1,
-3.986000e-1,-3.60e-1,
-3.984000e-1,3.84e-1,
-3.982000e-1,3.92e-1,
-3.980000e-1,-3.36e-1,
-3.978000e-1,2.72e-1,
-3.976000e-1,-2.64e-1,
-3.974000e-1,-1.20e-1,
-3.972000e-1,2.24e-1,
-3.970000e-1,0.00e+0,
-3.968000e-1,0.00e+0,
-3.966000e-1,1.60e-2,
-3.964000e-1,-8.00e-2,
-3.962000e-1,1.60e-2,
-3.960000e-1,-8.80e-2,
-3.958000e-1,8.00e-3,
-3.956000e-1,8.00e-3,
-3.954000e-1,0.00e+0,
-3.952000e-1,0.00e+0,
-3.950000e-1,8.00e-3,
-3.948000e-1,8.00e-3,
-3.946000e-1,0.00e+0,
-3.944000e-1,0.00e+0,
-3.942000e-1,0.00e+0,
-3.940000e-1,-8.80e-2,
-3.938000e-1,1.60e-2,
-3.936000e-1,1.60e-2,
-3.934000e-1,0.00e+0,
-3.932000e-1,0.00e+0,
-3.930000e-1,8.00e-3,
-3.928000e-1,8.00e-3,
-3.926000e-1,8.00e-3,
-3.924000e-1,8.00e-3,
-3.922000e-1,3.20e-2,
-3.920000e-1,3.20e-2,
-3.918000e-1,1.60e-2,
-3.916000e-1,1.60e-2,
-3.914000e-1,0.00e+0,
-3.912000e-1,8.80e-2,
-3.910000e-1,1.60e-2,
-3.908000e-1,1.60e-2,
-3.906000e-1,1.60e-2,
-3.904000e-1,1.60e-2,
-3.902000e-1,-2.56e-1,
-3.900000e-1,3.20e-1,
-3.898000e-1,-3.84e-1,
-3.896000e-1,3.76e-1,
-3.894000e-1,3.84e-1,
-3.892000e-1,-3.76e-1,
-3.890000e-1,-4.00e-1,
-3.888000e-1,4.00e-1,
-3.886000e-1,-3.84e-1,
-3.884000e-1,4.00e-1,
-3.882000e-1,-3.52e-1,
-3.880000e-1,3.68e-1,
-3.878000e-1,2.72e-1,
-3.876000e-1,-2.72e-1,
-3.874000e-1,2.00e-1,
-3.872000e-1,-1.60e-1,
-3.870000e-1,8.00e-3,
-3.868000e-1,8.00e-3,
-3.866000e-1,0.00e+0,
-3.864000e-1,0.00e+0,
-3.862000e-1,4.00e-2,
-3.860000e-1,4.00e-2,
-3.858000e-1,8.00e-3,
-3.856000e-1,-8.00e-2,
-3.854000e-1,1.60e-2,
-3.852000e-1,-7.20e-2,
-3.850000e-1,1.60e-2,
-3.848000e-1,-8.00e-2,
-3.846000e-1,0.00e+0,
-3.844000e-1,0.00e+0,
-3.842000e-1,8.00e-3,
-3.840000e-1,8.00e-3,
-3.838000e-1,-2.56e-1,
-3.836000e-1,2.40e-1,
-3.834000e-1,-2.56e-1,
-3.832000e-1,2.56e-1,
-3.830000e-1,2.48e-1,
-3.828000e-1,-2.48e-1,
-3.826000e-1,2.56e-1,
-3.824000e-1,-2.40e-1,
-3.822000e-1,-2.08e-1,
-3.820000e-1,2.56e-1,
-3.818000e-1,2.56e-1,
-3.816000e-1,-2.72e-1,
-3.814000e-1,-2.72e-1,
-3.812000e-1,2.64e-1,
-3.810000e-1,2.64e-1,
-3.808000e-1,-2.64e-1,
-3.806000e-1,2.48e-1,
-3.804000e-1,-2.56e-1,
-3.802000e-1,2.56e-1,
-3.800000e-1,-2.56e-1,
-3.798000e-1,-3.76e-1,
-3.796000e-1,3.84e-1,
-3.794000e-1,3.84e-1,
-3.792000e-1,-4.08e-1,
-3.790000e-1,-3.76e-1,
-3.788000e-1,3.92e-1,
-3.786000e-1,4.00e-1,
-3.784000e-1,-3.60e-1,
-3.782000e-1,3.76e-1,
-3.780000e-1,-3.36e-1,
-3.778000e-1,2.56e-1,
-3.776000e-1,-2.48e-1,
-3.774000e-1,2.48e-1,
-3.772000e-1,-1.76e-1,
-3.770000e-1,8.00e-3,
-3.768000e-1,8.00e-3,
-3.766000e-1,8.00e-3,
-3.764000e-1,-8.00e-2,
-3.762000e-1,8.00e-3,
-3.760000e-1,8.00e-3,
-3.758000e-1,1.60e-2,
-3.756000e-1,-7.20e-2,
-3.754000e-1,8.00e-3,
-3.752000e-1,8.00e-3,
-3.750000e-1,8.00e-3,
-3.748000e-1,8.00e-3,
-3.746000e-1,0.00e+0,
-3.744000e-1,0.00e+0,
-3.742000e-1,8.00e-3,
-3.740000e-1,-8.00e-2,
-3.738000e-1,-8.80e-2,
-3.736000e-1,9.60e-2,
-3.734000e-1,0.00e+0,
-3.732000e-1,9.60e-2,
-3.730000e-1,8.00e-3,
-3.728000e-1,8.00e-3,
-3.726000e-1,-8.00e-3,
-3.724000e-1,-8.00e-3,
-3.722000e-1,5.60e-2,
-3.720000e-1,-4.00e-2,
-3.718000e-1,1.60e-2,
-3.716000e-1,1.60e-2,
-3.714000e-1,0.00e+0,
-3.712000e-1,8.80e-2,
-3.710000e-1,-8.00e-3,
-3.708000e-1,8.00e-2,
-3.706000e-1,0.00e+0,
-3.704000e-1,0.00e+0,
-3.702000e-1,3.04e-1,
-3.700000e-1,-2.48e-1,
-3.698000e-1,3.76e-1,
-3.696000e-1,-3.84e-1,
-3.694000e-1,-3.76e-1,
-3.692000e-1,3.84e-1,
-3.690000e-1,-3.76e-1,
-3.688000e-1,4.00e-1,
-3.686000e-1,-3.68e-1,
-3.684000e-1,3.92e-1,
-3.682000e-1,3.84e-1,
-3.680000e-1,-3.44e-1,
-3.678000e-1,-2.56e-1,
-3.676000e-1,2.80e-1,
-3.674000e-1,-1.92e-1,
-3.672000e-1,2.24e-1,
-3.670000e-1,8.00e-3,
-3.668000e-1,8.00e-3,
-3.666000e-1,1.60e-2,
-3.664000e-1,-8.00e-2,
-3.662000e-1,8.00e-3,
-3.660000e-1,8.00e-3,
-3.658000e-1,1.60e-2,
-3.656000e-1,1.60e-2,
-3.654000e-1,8.00e-3,
-3.652000e-1,-8.00e-2,
-3.650000e-1,0.00e+0,
-3.648000e-1,0.00e+0,
-3.646000e-1,1.60e-2,
-3.644000e-1,1.60e-2,
-3.642000e-1,1.60e-2,
-3.640000e-1,-8.00e-2,
-3.638000e-1,-2.24e-1,
-3.636000e-1,2.56e-1,
-3.634000e-1,2.72e-1,
-3.632000e-1,-2.56e-1,
-3.630000e-1,2.64e-1,
-3.628000e-1,-2.48e-1,
-3.626000e-1,2.56e-1,
-3.624000e-1,-2.32e-1,
-3.622000e-1,-2.40e-1,
-3.620000e-1,2.56e-1,
-3.618000e-1,-2.64e-1,
-3.616000e-1,2.56e-1,
-3.614000e-1,-1.76e-1,
-3.612000e-1,2.48e-1,
-3.610000e-1,2.64e-1,
-3.608000e-1,-2.64e-1,
-3.606000e-1,-2.72e-1,
-3.604000e-1,2.56e-1,
-3.602000e-1,-2.48e-1,
-3.600000e-1,2.80e-1,
-3.598000e-1,3.76e-1,
-3.596000e-1,-3.76e-1,
-3.594000e-1,3.84e-1,
-3.592000e-1,-4.00e-1,
-3.590000e-1,-4.08e-1,
-3.588000e-1,3.92e-1,
-3.586000e-1,4.00e-1,
-3.584000e-1,-3.92e-1,
-3.582000e-1,3.84e-1,
-3.580000e-1,-3.20e-1,
-3.578000e-1,-2.56e-1,
-3.576000e-1,2.56e-1,
-3.574000e-1,2.48e-1,
-3.572000e-1,-2.00e-1,
-3.570000e-1,8.00e-3,
-3.568000e-1,8.00e-3,
-3.566000e-1,8.00e-3,
-3.564000e-1,8.00e-3,
-3.562000e-1,8.00e-3,
-3.560000e-1,-8.80e-2,
-3.558000e-1,8.00e-3,
-3.556000e-1,-8.00e-2,
-3.554000e-1,8.00e-3,
-3.552000e-1,-8.00e-2,
-3.550000e-1,2.40e-2,
-3.548000e-1,2.40e-2,
-3.546000e-1,8.00e-3,
-3.544000e-1,-8.80e-2,
-3.542000e-1,8.00e-3,
-3.540000e-1,8.00e-3,
-3.538000e-1,8.00e-3,
-3.536000e-1,8.00e-3,
-3.534000e-1,8.00e-3,
-3.532000e-1,9.60e-2,
-3.530000e-1,8.00e-3,
-3.528000e-1,8.00e-3,
-3.526000e-1,0.00e+0,
-3.524000e-1,0.00e+0,
-3.522000e-1,8.00e-3,
-3.520000e-1,8.00e-3,
-3.518000e-1,8.00e-3,
-3.516000e-1,8.00e-3,
-3.514000e-1,8.00e-3,
-3.512000e-1,8.00e-3,
-3.510000e-1,-1.60e-2,
-3.508000e-1,8.80e-2,
-3.506000e-1,1.60e-2,
-3.504000e-1,1.60e-2,
-3.502000e-1,2.72e-1,
-3.500000e-1,-1.92e-1,
-3.498000e-1,-3.84e-1,
-3.496000e-1,3.84e-1,
-3.494000e-1,-3.52e-1,
-3.492000e-1,3.84e-1,
-3.490000e-1,-3.92e-1,
-3.488000e-1,4.00e-1,
-3.486000e-1,-2.80e-1,
-3.484000e-1,3.92e-1,
-3.482000e-1,-3.36e-1,
-3.480000e-1,3.60e-1,
-3.478000e-1,2.88e-1,
-3.476000e-1,-2.72e-1,
-3.474000e-1,2.56e-1,
-3.472000e-1,-1.60e-1,
-3.470000e-1,0.00e+0,
-3.468000e-1,0.00e+0,
-3.466000e-1,1.60e-2,
-3.464000e-1,1.60e-2,
-3.462000e-1,8.00e-3,
-3.460000e-1,8.00e-3,
-3.458000e-1,8.00e-3,
-3.456000e-1,8.00e-3,
-3.454000e-1,8.00e-3,
-3.452000e-1,8.00e-3,
-3.450000e-1,1.60e-2,
-3.448000e-1,-8.00e-2,
-3.446000e-1,2.40e-2,
-3.444000e-1,-7.20e-2,
-3.442000e-1,8.00e-3,
-3.440000e-1,8.00e-3,
-3.438000e-1,1.36e-1,
-3.436000e-1,-2.24e-1,
-3.434000e-1,-2.40e-1,
-3.432000e-1,2.72e-1,
-3.430000e-1,2.56e-1,
-3.428000e-1,-2.08e-1,
-3.426000e-1,2.56e-1,
-3.424000e-1,-2.64e-1,
-3.422000e-1,-2.64e-1,
-3.420000e-1,2.56e-1,
-3.418000e-1,2.64e-1,
-3.416000e-1,-2.48e-1,
-3.414000e-1,-2.56e-1,
-3.412000e-1,2.72e-1,
-3.410000e-1,-2.32e-1,
-3.408000e-1,2.48e-1,
-3.406000e-1,-1.84e-1,
-3.404000e-1,2.56e-1,
-3.402000e-1,2.80e-1,
-3.400000e-1,-2.00e-1,
-3.398000e-1,-3.84e-1,
-3.396000e-1,3.76e-1,
-3.394000e-1,3.84e-1,
-3.392000e-1,-4.00e-1,
-3.390000e-1,4.00e-1,
-3.388000e-1,-3.84e-1,
-3.386000e-1,4.00e-1,
-3.384000e-1,-3.76e-1,
-3.382000e-1,3.84e-1,
-3.380000e-1,-3.60e-1,
-3.378000e-1,2.56e-1,
-3.376000e-1,-2.72e-1,
-3.374000e-1,-1.76e-1,
-3.372000e-1,2.08e-1,
-3.370000e-1,8.00e-3,
-3.368000e-1,-8.00e-2,
-3.366000e-1,0.00e+0,
-3.364000e-1,0.00e+0,
-3.362000e-1,0.00e+0,
-3.360000e-1,0.00e+0,
-3.358000e-1,1.60e-2,
-3.356000e-1,-8.00e-2,
-3.354000e-1,8.00e-3,
-3.352000e-1,-8.00e-2,
-3.350000e-1,8.00e-3,
-3.348000e-1,8.00e-3,
-3.346000e-1,1.60e-2,
-3.344000e-1,-8.00e-2,
-3.342000e-1,8.00e-3,
-3.340000e-1,8.00e-3,
-3.338000e-1,8.00e-3,
-3.336000e-1,1.04e-1,
-3.334000e-1,0.00e+0,
-3.332000e-1,9.60e-2,
-3.330000e-1,-2.40e-2,
-3.328000e-1,8.80e-2,
-3.326000e-1,8.00e-3,
-3.324000e-1,8.00e-3,
-3.322000e-1,-8.00e-3,
-3.320000e-1,-8.00e-3,
-3.318000e-1,1.60e-2,
-3.316000e-1,1.60e-2,
-3.314000e-1,0.00e+0,
-3.312000e-1,8.80e-2,
-3.310000e-1,4.00e-2,
-3.308000e-1,4.00e-2,
-3.306000e-1,8.00e-3,
-3.304000e-1,8.00e-3,
-3.302000e-1,2.88e-1,
-3.300000e-1,-1.92e-1,
-3.298000e-1,-4.00e-1,
-3.296000e-1,3.76e-1,
-3.294000e-1,-4.00e-1,
-3.292000e-1,3.92e-1,
-3.290000e-1,4.00e-1,
-3.288000e-1,-3.84e-1,
-3.286000e-1,4.00e-1,
-3.284000e-1,-3.84e-1,
-3.282000e-1,3.68e-1,
-3.280000e-1,-3.12e-1,
-3.278000e-1,2.40e-1,
-3.276000e-1,-1.84e-1,
-3.274000e-1,-1.84e-1,
-3.272000e-1,2.24e-1,
-3.270000e-1,1.60e-2,
-3.268000e-1,1.60e-2,
-3.266000e-1,1.60e-2,
-3.264000e-1,-7.20e-2,
-3.262000e-1,0.00e+0,
-3.260000e-1,0.00e+0,
-3.258000e-1,1.60e-2,
-3.256000e-1,-7.20e-2,
-3.254000e-1,8.00e-3,
-3.252000e-1,8.00e-3,
-3.250000e-1,0.00e+0,
-3.248000e-1,0.00e+0,
-3.246000e-1,8.00e-3,
-3.244000e-1,8.00e-3,
-3.242000e-1,8.00e-3,
-3.240000e-1,8.00e-3,
-3.238000e-1,-1.44e-1,
-3.236000e-1,2.48e-1,
-3.234000e-1,-2.24e-1,
-3.232000e-1,2.56e-1,
-3.230000e-1,-2.40e-1,
-3.228000e-1,2.64e-1,
-3.226000e-1,2.56e-1,
-3.224000e-1,-2.56e-1,
-3.222000e-1,2.64e-1,
-3.220000e-1,-2.72e-1,
-3.218000e-1,2.56e-1,
-3.216000e-1,-2.72e-1,
-3.214000e-1,-2.56e-1,
-3.212000e-1,2.48e-1,
-3.210000e-1,-2.64e-1,
-3.208000e-1,2.56e-1,
-3.206000e-1,-2.48e-1,
-3.204000e-1,2.48e-1,
-3.202000e-1,2.88e-1,
-3.200000e-1,-2.40e-1,
-3.198000e-1,3.84e-1,
-3.196000e-1,-4.00e-1,
-3.194000e-1,3.84e-1,
-3.192000e-1,-3.92e-1,
-3.190000e-1,-3.84e-1,
-3.188000e-1,3.92e-1,
-3.186000e-1,-3.92e-1,
-3.184000e-1,3.76e-1,
-3.182000e-1,3.84e-1,
-3.180000e-1,-3.52e-1,
-3.178000e-1,2.72e-1,
-3.176000e-1,-2.40e-1,
-3.174000e-1,2.32e-1,
-3.172000e-1,-1.52e-1,
-3.170000e-1,8.00e-3,
-3.168000e-1,8.00e-3,
-3.166000e-1,1.60e-2,
-3.164000e-1,1.60e-2,
-3.162000e-1,1.60e-2,
-3.160000e-1,1.60e-2,
-3.158000e-1,1.60e-2,
-3.156000e-1,-8.80e-2,
-3.154000e-1,8.00e-3,
-3.152000e-1,-8.80e-2,
-3.150000e-1,8.00e-3,
-3.148000e-1,-8.00e-2,
-3.146000e-1,8.00e-3,
-3.144000e-1,-8.00e-2,
-3.142000e-1,0.00e+0,
-3.140000e-1,0.00e+0,
-3.138000e-1,-8.00e-2,
-3.136000e-1,9.60e-2,
-3.134000e-1,8.00e-3,
-3.132000e-1,8.00e-3,
-3.130000e-1,-8.00e-3,
-3.128000e-1,8.00e-2,
-3.126000e-1,8.00e-3,
-3.124000e-1,8.00e-3,
-3.122000e-1,0.00e+0,
-3.120000e-1,9.60e-2,
-3.118000e-1,1.60e-2,
-3.116000e-1,1.60e-2,
-3.114000e-1,8.00e-3,
-3.112000e-1,8.00e-3,
-3.110000e-1,8.00e-3,
-3.108000e-1,8.00e-3,
-3.106000e-1,1.60e-2,
-3.104000e-1,1.60e-2,
-3.102000e-1,-2.16e-1,
-3.100000e-1,2.96e-1,
-3.098000e-1,-3.84e-1,
-3.096000e-1,3.76e-1,
-3.094000e-1,3.84e-1,
-3.092000e-1,-3.92e-1,
-3.090000e-1,-3.92e-1,
-3.088000e-1,3.92e-1,
-3.086000e-1,4.00e-1,
-3.084000e-1,-3.76e-1,
-3.082000e-1,3.92e-1,
-3.080000e-1,-3.36e-1,
-3.078000e-1,2.64e-1,
-3.076000e-1,-2.56e-1,
-3.074000e-1,2.40e-1,
-3.072000e-1,-1.76e-1,
-3.070000e-1,-8.00e-2,
-3.068000e-1,1.12e-1,
-3.066000e-1,8.00e-3,
-3.064000e-1,8.00e-3,
-3.062000e-1,8.00e-3,
-3.060000e-1,-8.00e-2,
-3.058000e-1,0.00e+0,
-3.056000e-1,0.00e+0,
-3.054000e-1,1.60e-2,
-3.052000e-1,-8.00e-2,
-3.050000e-1,8.00e-3,
-3.048000e-1,8.00e-3,
-3.046000e-1,0.00e+0,
-3.044000e-1,0.00e+0,
-3.042000e-1,0.00e+0,
-3.040000e-1,-8.80e-2,
-3.038000e-1,-1.84e-1,
-3.036000e-1,2.48e-1,
-3.034000e-1,-2.32e-1,
-3.032000e-1,2.40e-1,
-3.030000e-1,2.64e-1,
-3.028000e-1,-1.92e-1,
-3.026000e-1,2.48e-1,
-3.024000e-1,-2.40e-1,
-3.022000e-1,2.56e-1,
-3.020000e-1,-2.08e-1,
-3.018000e-1,2.56e-1,
-3.016000e-1,-2.72e-1,
-3.014000e-1,2.56e-1,
-3.012000e-1,-2.00e-1,
-3.010000e-1,2.64e-1,
-3.008000e-1,-2.40e-1,
-3.006000e-1,-2.56e-1,
-3.004000e-1,2.48e-1,
-3.002000e-1,-2.48e-1,
-3.000000e-1,2.56e-1,
-2.998000e-1,3.76e-1,
-2.996000e-1,-3.60e-1,
-2.994000e-1,-4.00e-1,
-2.992000e-1,3.84e-1,
-2.990000e-1,-4.00e-1,
-2.988000e-1,3.92e-1,
-2.986000e-1,3.84e-1,
-2.984000e-1,-3.60e-1,
-2.982000e-1,-3.36e-1,
-2.980000e-1,3.76e-1,
-2.978000e-1,-2.56e-1,
-2.976000e-1,2.56e-1,
-2.974000e-1,2.08e-1,
-2.972000e-1,-1.60e-1,
-2.970000e-1,8.00e-3,
-2.968000e-1,8.00e-3,
-2.966000e-1,8.00e-3,
-2.964000e-1,8.00e-3,
-2.962000e-1,1.60e-2,
-2.960000e-1,-8.00e-2,
-2.958000e-1,8.00e-3,
-2.956000e-1,-8.00e-2,
-2.954000e-1,2.40e-2,
-2.952000e-1,-8.00e-2,
-2.950000e-1,8.00e-3,
-2.948000e-1,-8.80e-2,
-2.946000e-1,8.00e-3,
-2.944000e-1,-8.00e-2,
-2.942000e-1,1.60e-2,
-2.940000e-1,1.60e-2,
-2.938000e-1,-8.00e-2,
-2.936000e-1,9.60e-2,
-2.934000e-1,-4.00e-2,
-2.932000e-1,9.60e-2,
-2.930000e-1,0.00e+0,
-2.928000e-1,8.80e-2,
-2.926000e-1,4.80e-2,
-2.924000e-1,4.80e-2,
-2.922000e-1,-1.60e-2,
-2.920000e-1,8.00e-2,
-2.918000e-1,-8.00e-3,
-2.916000e-1,-8.00e-3,
-2.914000e-1,1.60e-2,
-2.912000e-1,1.60e-2,
-2.910000e-1,8.00e-3,
-2.908000e-1,8.00e-3,
-2.906000e-1,5.60e-2,
-2.904000e-1,-3.20e-2,
-2.902000e-1,3.12e-1,
-2.900000e-1,-2.40e-1,
-2.898000e-1,-3.52e-1,
-2.896000e-1,3.84e-1,
-2.894000e-1,-4.00e-1,
-2.892000e-1,3.84e-1,
-2.890000e-1,-3.68e-1,
-2.888000e-1,3.92e-1,
-2.886000e-1,-3.60e-1,
-2.884000e-1,4.00e-1,
-2.882000e-1,-3.36e-1,
-2.880000e-1,3.76e-1,
-2.878000e-1,-2.64e-1,
-2.876000e-1,2.72e-1,
-2.874000e-1,-1.92e-1,
-2.872000e-1,2.40e-1,
-2.870000e-1,8.00e-3,
-2.868000e-1,8.00e-3,
-2.866000e-1,1.60e-2,
-2.864000e-1,-8.00e-2,
-2.862000e-1,3.20e-2,
-2.860000e-1,3.20e-2,
-2.858000e-1,8.00e-3,
-2.856000e-1,-8.00e-2,
-2.854000e-1,0.00e+0,
-2.852000e-1,0.00e+0,
-2.850000e-1,8.00e-3,
-2.848000e-1,8.00e-3,
-2.846000e-1,-8.00e-3,
-2.844000e-1,-8.00e-3,
-2.842000e-1,0.00e+0,
-2.840000e-1,0.00e+0,
-2.838000e-1,2.32e-1,
-2.836000e-1,-2.24e-1,
-2.834000e-1,-2.24e-1,
-2.832000e-1,2.64e-1,
-2.830000e-1,-2.48e-1,
-2.828000e-1,2.72e-1,
-2.826000e-1,2.48e-1,
-2.824000e-1,-2.56e-1,
-2.822000e-1,2.48e-1,
-2.820000e-1,-2.48e-1,
-2.818000e-1,-2.16e-1,
-2.816000e-1,2.56e-1,
-2.814000e-1,2.56e-1,
-2.812000e-1,-2.24e-1,
-2.810000e-1,-2.40e-1,
-2.808000e-1,2.56e-1,
-2.806000e-1,2.48e-1,
-2.804000e-1,-2.40e-1,
-2.802000e-1,-2.40e-1,
-2.800000e-1,2.72e-1,
-2.798000e-1,-3.68e-1,
-2.796000e-1,3.76e-1,
-2.794000e-1,3.76e-1,
-2.792000e-1,-4.00e-1,
-2.790000e-1,-3.92e-1,
-2.788000e-1,3.92e-1,
-2.786000e-1,-3.92e-1,
-2.784000e-1,3.92e-1,
-2.782000e-1,-3.28e-1,
-2.780000e-1,3.84e-1,
-2.778000e-1,2.48e-1,
-2.776000e-1,-2.48e-1,
-2.774000e-1,-1.76e-1,
-2.772000e-1,2.48e-1,
-2.770000e-1,1.60e-2,
-2.768000e-1,-7.20e-2,
-2.766000e-1,8.00e-3,
-2.764000e-1,-8.80e-2,
-2.762000e-1,8.00e-3,
-2.760000e-1,8.00e-3,
-2.758000e-1,-8.00e-3,
-2.756000e-1,-8.00e-3,
-2.754000e-1,8.00e-3,
-2.752000e-1,8.00e-3,
-2.750000e-1,8.00e-3,
-2.748000e-1,8.00e-3,
-2.746000e-1,8.00e-3,
-2.744000e-1,8.00e-3,
-2.742000e-1,0.00e+0,
-2.740000e-1,-8.80e-2,
-2.738000e-1,1.60e-2,
-2.736000e-1,-7.20e-2,
-2.734000e-1,0.00e+0,
-2.732000e-1,1.60e-2,
-2.730000e-1,1.60e-2,
-2.728000e-1,1.60e-2,
-2.726000e-1,3.20e-2,
-2.724000e-1,3.20e-2,
-2.722000e-1,1.60e-2,
-2.720000e-1,1.60e-2,
-2.718000e-1,8.00e-3,
-2.716000e-1,8.00e-3,
-2.714000e-1,8.00e-3,
-2.712000e-1,8.00e-3,
-2.710000e-1,1.60e-2,
-2.708000e-1,1.60e-2,
-2.706000e-1,8.00e-3,
-2.704000e-1,8.00e-3,
-2.702000e-1,-2.00e-1,
-2.700000e-1,2.88e-1,
-2.698000e-1,3.84e-1,
-2.696000e-1,-3.92e-1,
-2.694000e-1,-3.92e-1,
-2.692000e-1,3.92e-1,
-2.690000e-1,-3.92e-1,
-2.688000e-1,3.84e-1,
-2.686000e-1,-3.68e-1,
-2.684000e-1,3.84e-1,
-2.682000e-1,3.60e-1,
-2.680000e-1,-3.44e-1,
-2.678000e-1,2.88e-1,
-2.676000e-1,-2.80e-1,
-2.674000e-1,-2.00e-1,
-2.672000e-1,2.08e-1,
-2.670000e-1,8.00e-3,
-2.668000e-1,8.00e-3,
-2.666000e-1,8.00e-3,
-2.664000e-1,8.00e-3,
-2.662000e-1,8.00e-3,
-2.660000e-1,8.00e-3,
-2.658000e-1,8.00e-3,
-2.656000e-1,-8.00e-2,
-2.654000e-1,1.60e-2,
-2.652000e-1,-8.00e-2,
-2.650000e-1,0.00e+0,
-2.648000e-1,0.00e+0,
-2.646000e-1,0.00e+0,
-2.644000e-1,0.00e+0,
-2.642000e-1,8.00e-3,
-2.640000e-1,8.00e-3,
-2.638000e-1,-1.04e-1,
-2.636000e-1,1.60e-1,
-2.634000e-1,-2.40e-1,
-2.632000e-1,2.72e-1,
-2.630000e-1,2.64e-1,
-2.628000e-1,-2.64e-1,
-2.626000e-1,-2.64e-1,
-2.624000e-1,2.64e-1,
-2.622000e-1,-2.32e-1,
-2.620000e-1,2.56e-1,
-2.618000e-1,-2.72e-1,
-2.616000e-1,2.64e-1,
-2.614000e-1,2.56e-1,
-2.612000e-1,-2.24e-1,
-2.610000e-1,-2.64e-1,
-2.608000e-1,2.72e-1,
-2.606000e-1,2.56e-1,
-2.604000e-1,-2.64e-1,
-2.602000e-1,2.80e-1,
-2.600000e-1,-2.48e-1,
-2.598000e-1,3.84e-1,
-2.596000e-1,-3.92e-1,
-2.594000e-1,-3.92e-1,
-2.592000e-1,3.84e-1,
-2.590000e-1,-4.00e-1,
-2.588000e-1,3.84e-1,
-2.586000e-1,3.92e-1,
-2.584000e-1,-3.76e-1,
-2.582000e-1,-3.52e-1,
-2.580000e-1,3.84e-1,
-2.578000e-1,-2.64e-1,
-2.576000e-1,2.72e-1,
-2.574000e-1,-2.16e-1,
-2.572000e-1,2.08e-1,
-2.570000e-1,8.00e-3,
-2.568000e-1,8.00e-3,
-2.566000e-1,1.60e-2,
-2.564000e-1,-8.00e-2,
-2.562000e-1,8.00e-3,
-2.560000e-1,-8.00e-2,
-2.558000e-1,8.00e-3,
-2.556000e-1,8.00e-3,
-2.554000e-1,8.00e-3,
-2.552000e-1,8.00e-3,
-2.550000e-1,0.00e+0,
-2.548000e-1,0.00e+0,
-2.546000e-1,8.00e-3,
-2.544000e-1,-8.00e-2,
-2.542000e-1,1.60e-2,
-2.540000e-1,1.60e-2,
-2.538000e-1,8.00e-3,
-2.536000e-1,-8.80e-2,
-2.534000e-1,8.00e-3,
-2.532000e-1,8.00e-3,
-2.530000e-1,0.00e+0,
-2.528000e-1,0.00e+0,
-2.526000e-1,0.00e+0,
-2.524000e-1,0.00e+0,
-2.522000e-1,8.00e-3,
-2.520000e-1,8.00e-3,
-2.518000e-1,-1.60e-2,
-2.516000e-1,8.00e-2,
-2.514000e-1,8.00e-3,
-2.512000e-1,8.00e-3,
-2.510000e-1,8.00e-3,
-2.508000e-1,8.00e-3,
-2.506000e-1,0.00e+0,
-2.504000e-1,0.00e+0,
-2.502000e-1,2.80e-1,
-2.500000e-1,-2.24e-1,
-2.498000e-1,-3.76e-1,
-2.496000e-1,3.76e-1,
-2.494000e-1,3.52e-1,
-2.492000e-1,-4.00e-1,
-2.490000e-1,3.84e-1,
-2.488000e-1,-4.00e-1,
-2.486000e-1,4.00e-1,
-2.484000e-1,-3.92e-1,
-2.482000e-1,-3.44e-1,
-2.480000e-1,3.68e-1,
-2.478000e-1,2.64e-1,
-2.476000e-1,-2.80e-1,
-2.474000e-1,2.40e-1,
-2.472000e-1,-1.68e-1,
-2.470000e-1,8.00e-3,
-2.468000e-1,8.00e-3,
-2.466000e-1,1.60e-2,
-2.464000e-1,-8.00e-2,
-2.462000e-1,1.60e-2,
-2.460000e-1,-8.00e-2,
-2.458000e-1,8.00e-3,
-2.456000e-1,8.00e-3,
-2.454000e-1,8.00e-3,
-2.452000e-1,8.00e-3,
-2.450000e-1,0.00e+0,
-2.448000e-1,0.00e+0,
-2.446000e-1,0.00e+0,
-2.444000e-1,0.00e+0,
-2.442000e-1,8.00e-3,
-2.440000e-1,8.00e-3,
-2.438000e-1,-9.60e-2,
-2.436000e-1,2.16e-1,
-2.434000e-1,-2.24e-1,
-2.432000e-1,2.72e-1,
-2.430000e-1,2.48e-1,
-2.428000e-1,-2.40e-1,
-2.426000e-1,-2.56e-1,
-2.424000e-1,2.64e-1,
-2.422000e-1,2.64e-1,
-2.420000e-1,-2.64e-1,
-2.418000e-1,-2.40e-1,
-2.416000e-1,2.64e-1,
-2.414000e-1,-2.72e-1,
-2.412000e-1,2.56e-1,
-2.410000e-1,-2.40e-1,
-2.408000e-1,2.72e-1,
-2.406000e-1,-2.24e-1,
-2.404000e-1,2.48e-1,
-2.402000e-1,2.56e-1,
-2.400000e-1,-2.08e-1,
-2.398000e-1,-3.68e-1,
-2.396000e-1,3.84e-1,
-2.394000e-1,3.92e-1,
-2.392000e-1,-4.08e-1,
-2.390000e-1,-3.84e-1,
-2.388000e-1,3.92e-1,
-2.386000e-1,3.84e-1,
-2.384000e-1,-3.52e-1,
-2.382000e-1,3.84e-1,
-2.380000e-1,-3.68e-1,
-2.378000e-1,-2.64e-1,
-2.376000e-1,2.72e-1,
-2.374000e-1,2.64e-1,
-2.372000e-1,-1.92e-1,
-2.370000e-1,8.00e-3,
-2.368000e-1,8.00e-3,
-2.366000e-1,0.00e+0,
-2.364000e-1,0.00e+0,
-2.362000e-1,8.00e-3,
-2.360000e-1,-8.80e-2,
-2.358000e-1,8.00e-3,
-2.356000e-1,-8.00e-2,
-2.354000e-1,8.00e-3,
-2.352000e-1,-8.00e-2,
-2.350000e-1,0.00e+0,
-2.348000e-1,0.00e+0,
-2.346000e-1,1.60e-2,
-2.344000e-1,-7.20e-2,
-2.342000e-1,8.00e-3,
-2.340000e-1,8.00e-3,
-2.338000e-1,8.00e-3,
-2.336000e-1,1.04e-1,
-2.334000e-1,8.00e-3,
-2.332000e-1,9.60e-2,
-2.330000e-1,8.00e-3,
-2.328000e-1,8.00e-3,
-2.326000e-1,1.60e-2,
-2.324000e-1,1.60e-2,
-2.322000e-1,0.00e+0,
-2.320000e-1,0.00e+0,
-2.318000e-1,8.00e-3,
-2.316000e-1,8.00e-3,
-2.314000e-1,3.20e-2,
-2.312000e-1,3.20e-2,
-2.310000e-1,1.60e-2,
-2.308000e-1,1.60e-2,
-2.306000e-1,-8.00e-3,
-2.304000e-1,8.00e-2,
-2.302000e-1,3.12e-1,
-2.300000e-1,-1.92e-1,
-2.298000e-1,3.76e-1,
-2.296000e-1,-3.92e-1,
-2.294000e-1,3.76e-1,
-2.292000e-1,-3.84e-1,
-2.290000e-1,-3.84e-1,
-2.288000e-1,4.00e-1,
-2.286000e-1,4.00e-1,
-2.284000e-1,-3.84e-1,
-2.282000e-1,-3.76e-1,
-2.280000e-1,3.76e-1,
-2.278000e-1,-2.64e-1,
-2.276000e-1,2.72e-1,
-2.274000e-1,1.92e-1,
-2.272000e-1,-2.08e-1,
-2.270000e-1,8.00e-3,
-2.268000e-1,-8.00e-2,
-2.266000e-1,4.00e-2,
-2.264000e-1,-8.00e-2,
-2.262000e-1,8.00e-3,
-2.260000e-1,-8.00e-2,
-2.258000e-1,0.00e+0,
-2.256000e-1,0.00e+0,
-2.254000e-1,0.00e+0,
-2.252000e-1,0.00e+0,
-2.250000e-1,8.00e-3,
-2.248000e-1,8.00e-3,
-2.246000e-1,8.00e-3,
